Solving #AdventOfCode day 5 and 6 with R - Colin Fay
…
day6 <- read_csv("input6.txt", col_names = c("V1", "V2"))

## Parsed with column specification:
## cols(
##   V1 = col_integer(),
##   V2 = col_integer()
## )

day6$id <- as.character(1:50)
day6

## # A tibble: 50 x 3
##       V1    V2 id   
##    <int> <int> <chr>
##  1   315   342 1    
##  2    59   106 2    
##  3    44   207 3    
##  4    52    81 4    
##  5   139   207 5    
##  6    93   135 6    
##  7   152   187 7    
##  8   271    47 8    
##  9   223   342 9    
## 10    50   255 10   
## # ... with 40 more rows
…
