…
+ `proust_*()` functions return data objects (books, characters, stop words, random Proust extracts...)

+ `pr_*()` functions perform actions on the data. `pr` is short for p(roust)r, pr(oust), p(rocessing f)r(ench), or anything you can think of :). This shortcode refers to functions like `pr_clean_punc()`.

## `proust_*()` functions

### `proust_books()` 

Get the tibble with all the books : 

```r
library(proustr)
proust_books()
# A tibble: 4,690 x 4
                                                                                         text
 *                                                                                      <chr>
 1 "Longtemps, je me suis couché de bonne heure. Parfois, à peine ma bougie éteinte, mes yeux
 2 J'appuyais tendrement mes joues contre les belles joues de l'oreiller qui, pleines et fraî
 3 Je me rendormais, et parfois je n'avais plus que de courts réveils d'un instant, le temps 
 4 Quelquefois, comme Ève naquit d'une côte d'Adam, une femme naissait pendant mon sommeil d'
 5 Un homme qui dort tient en cercle autour de lui le fil des heures, l'ordre des années et d
 6 "Peut-être l'immobilité des choses autour de nous leur est-elle imposée par notre certitud
 7 Puis renaissait le souvenir d'une nouvelle attitude ; le mur filait dans une autre directi
 8 Ces évocations tournoyantes et confuses ne duraient jamais que quelques secondes ; souvent
 9 Certes, j'étais bien éveillé maintenant : mon corps avait viré une dernière fois et le bon
10 "À Combray, tous les jours dès la fin de l'après-midi, longtemps avant le moment où il fau
# ... with 4,680 more rows, and 3 more variables: book <chr>, volume <chr>, year <dbl>
```

### `proust_characters()`

`proust_characters` returns a tibble with each characters from the books. 

```r
proust_characters()
# A tibble: 461 x 1
             perso
 *           <chr>
 1            A.J.
 2    Académicien 
 3        Adolphe 
 4      Agrigente 
 5      Agrigente 
 6            Aimé
 7 Albaret Céleste
 8          Albert
 9       Albertine
10           Albon
# ... with 451 more rows
```
…
```

### `proust_stopwords()`

This function returns you a list of stopwords: 

```r
proust_stopwords()
# A tibble: 783 x 1
        words
 *     <fctr>
 1          a
 2      abord
 3 absolument
 4       afin
 5         ah
 6         ai
 7        aie
 8      aient
 9       aies
10   ailleurs
# ... with 773 more rows
```

### `proust_sentiments()`

Sentiment lexicon is launched with: 

```r
proust_sentiments()
# A tibble: 14,127 x 2
              word polarity
 *           <chr>    <chr>
 1 à ce endroit là positive
 2       à le hâte negative
 3          à part negative
 4           à pic negative
 5      à rallonge negative
 6      abasourdir negative
 7        ablation negative
 8      abominable negative
 9          abrupt negative
10          absent negative
# ... with 14,117 more rows
```

You can chose between polarity (positive or negative, which is the default behavior), or a score on six sentiments (joy, fear, sadness, anger, surprise, disgust) with `type = "score"`.

```r
# A tibble: 11,530 x 3
          word sentiment score
 *       <chr>     <chr> <int>
 1 abaissement   sadness     1
 2    abaisser   sadness     1
 3     abandon      fear     1
 4     abandon   sadness     1
 5     abandon     anger     1
 6     abandon  surprise     1
 7  abandonner      fear     1
 8  abandonner   sadness     1
 9  abandonner     anger     1
10  abandonner   disgust     1
# ... with 11,520 more rows
```
…
### `pr_detect_months()`

Detects the months from a data.frame (in French).

```r
pr_detect_months(condillac, text) %>% filter(n_months != 0)
# A tibble: 57 x 4
   gutenberg_id                                                                     text    months
          <int>                                                                    <chr>    <list>
 1        55483                                  _morte à Puchesse, le 30 octobre 1896._ <chr [1]>
 2        55483      juillet 1701; ce sont Gabriel Bonnot, capitaine du château et de la <chr [1]>
 3        55483    1680. Il acquit le 28 septembre 1720, pour le prix de 120 000 livres, <chr [1]>
 4        55483 septembre 1714. Son enfance fut très maladive. Il avait atteint l'âge de <chr [1]>
 5        55483          de Rousseau, l'une de mars ou avril 1740 à M. d'Eybens, l'autre <chr [2]>
 6        55483                  du 1er mai 1740 à Mme la baronne de Warens, donnent ses <chr [1]>
 7        55483  Paris en janvier 1767. L'année suivante, l'abbé d'Olivet étant mort, il <chr [1]>
 8        55483 jeudi 27 décembre 1768. Mais il n'assistait guère aux séances et prenait <chr [1]>
 9        55483   1771. Le 28 avril 1773, l'abbé de Condillac lui fit don d'une somme de <chr [1]>
10        55483        le 31 juillet et se voyant perdu, il demanda un prêtre. Ce fut le <chr [1]>
# ... with 47 more rows, and 1 more variables: n_months <int>
```
…
```r
condillac %>% 
  mutate(line = row_number()) %>%
  pr_detect_pro(text) %>% 
  select(-text) %>%
  arrange(line)
  
# A tibble: 2,248 x 4
   gutenberg_id  line pronoun count
          <int> <int>   <chr> <int>
 1        55483    46     pps     1
 2        55483    61     tps     1
 3        55483    62     tps     1
 4        55483    63     ppp     1
 5        55483    64     tps     2
 6        55483    65     tps     2
 7        55483    66     tps     1
 8        55483    70     pps     1
 9        55483    72     tps     1
10        55483    75     tps     2
# ... with 2,238 more rows
```
…
French has a weird punctuation use. For example, quotes are `«` and `»`, instead of `"`. Other strange characters may include `՚`,`︐` or `’` for apostrophe. This function removes most of the punctuation idiosyncracy you can find in a french text. 

Why bother? Some text-mining tools perform a split with `'`, not with `՚`, a behavior which can lead to some error when tokenizing a text.  

### `pr_stem()`

Turn your text into stems. This is an implementation of the {SnowballC} package in {proustr}.Please keep in mind that punctuation and capital letters are removed by this function.

You can stem a data.frame with a column containing sentences with `pr_stem_sentences` : 

```r
pr_stem_sentences(condillac, text) %>%
  filter(nchar(text) !=0)
# A tibble: 3,767 x 2
   gutenberg_id                                                        text
          <int>                                                       <chr>
 1        55483      not sur la transcript le erreur clair introduit par le
 2        55483                                    typograph ont été corrig
 3        55483 l'orthograph d'origin a été conserv et n'a pas été harmonis
 4        55483                                                   condillac
 5        55483                                                     illustr
 6        55483                                                   condillac
 7        55483                                         _sa vi sa philosoph
 8        55483                                              son influence_
 9        55483                                                         par
10        55483                               le comt baguenault de puchess
# ... with 3,757 more rows
```
…
