…
``` r
library(tidyr)
emos <- res %>%
  mutate(
    emo = ji_extract_all(text)
  ) %>%
  select(created_at,emo) %>%
  unnest(emo)

emos
```

    ## # A tibble: 887 x 2
    ##    created_at          emo  
    ##    <dttm>              <chr>
    ##  1 2018-07-17 10:00:47 ğŸ“¦   
    ##  2 2018-07-17 08:35:05 ğŸš€   
    ##  3 2018-07-16 18:47:25 ğŸ˜®   
    ##  4 2018-07-16 14:51:30 ğŸ˜   
    ##  5 2018-07-16 14:51:16 ğŸ˜±   
    ##  6 2018-07-16 13:28:08 ğŸ’   
    ##  7 2018-07-16 13:27:00 ğŸ˜ˆ   
    ##  8 2018-07-16 13:27:00 ğŸŒ²   
    ##  9 2018-07-16 13:27:00 ğŸ’€   
    ## 10 2018-07-16 13:25:01 ğŸ›   
    ## # ... with 877 more rows

``` r
emos %>%
  count(emo, sort = TRUE)
```

    ## # A tibble: 187 x 2
    ##    emo       n
    ##    <chr> <int>
    ##  1 ğŸ¤”       84
    ##  2 ğŸ“¦       56
    ##  3 ğŸ˜¬       51
    ##  4 ğŸ‰       50
    ##  5 ğŸ˜±       50
    ##  6 ğŸ˜‡       42
    ##  7 ğŸ˜       36
    ##  8 ğŸ™ƒ       35
    ##  9 ğŸ˜‚       33
    ## 10 ğŸ˜œ       28
    ## # ... with 177 more rows
…
    ## Joining, by = "emo"

    ## Warning: Column `emo` joining character vector and factor, coercing into
    ## character vector

    ## # A tibble: 295 x 3
    ##    emo   name                       n
    ##    <chr> <fct>                  <int>
    ##  1 ğŸ¤”    thinking                  84
    ##  2 ğŸ¤”    thinking_face             84
    ##  3 ğŸ“¦    package                   56
    ##  4 ğŸ˜¬    grimacing                 51
    ##  5 ğŸ˜¬    grimacing_face            51
    ##  6 ğŸ‰    party_popper              50
    ##  7 ğŸ‰    tada                      50
    ##  8 ğŸ˜±    face_screaming_in_fear    50
    ##  9 ğŸ˜±    scream                    50
    ## 10 ğŸ˜‡    innocent                  42
    ## # ... with 285 more rows
…
    ## Joining, by = "word"
    ## Joining, by = "word"
    ## Joining, by = "word"

    ## Warning: Column `word` joining character vector and factor, coercing into
    ## character vector

    ## # A tibble: 5,660 x 3
    ##    emo   word          n
    ##    <chr> <chr>     <int>
    ##  1 ğŸ“¦    rstats       37
    ##  2 ğŸ‰    rstats       27
    ##  3 ğŸ’»    macbook      26
    ##  4 ğŸ“¦    package      20
    ##  5 ğŸ‘    trans        18
    ##  6 â˜•    pm           15
    ##  7 ğŸ’»    pro          15
    ##  8 ğŸ’»    marche       10
    ##  9 ğŸ¤”    ma_salmon    10
    ## 10 ğŸ˜±    ma_salmon    10
    ## # ... with 5,650 more rows
…
    ## Joining, by = "word"
    ## Joining, by = "word"
    ## Joining, by = "word"

    ## Warning: Column `word` joining character vector and factor, coercing into
    ## character vector

    ## # A tibble: 81 x 3
    ##    emo   word       n
    ##    <chr> <chr>  <int>
    ##  1 ğŸ“¦    rstats    37
    ##  2 ğŸ‰    rstats    27
    ##  3 ğŸ˜¬    rstats     5
    ##  4 ğŸŒŸ    rstats     4
    ##  5 ğŸ‘Œ    rstats     4
    ##  6 ğŸ¤”    rstats     4
    ##  7 âœï¸    rstats     3
    ##  8 ğŸ’    rstats     3
    ##  9 ğŸ™Œ    rstats     3
    ## 10 âš¡    rstats     2
    ## # ... with 71 more rows
…
