…
I can now easily reaccess it.

``` r
res_raw <- read.delim("https://colinfay.me/wikileaksdm/raw.txt", 
                      sep = "\n", header = FALSE) %>% 
  # Turning the character vector into a tibbe
  as.tibble() %>% 
  # Renaming the V1 columné
  rename(value = V1)
res_raw
```

    ## # A tibble: 11,377 x 1
    ##    value                                                                   
    ##    <fct>                                                                   
    ##  1 [2015-05-01 13:52:11] <noll> group Dm on Wls related trolls activity, i…
    ##  2 [2015-05-01 13:53:39] <WikiLeaks> There’s a race on now to ‘spoil’ our …
    ##  3 [2015-05-01 13:55:02] <WikiLeaks> Greenberg, who palled up with the ope…
    ##  4 [2015-05-01 13:55:53] <WikiLeaks> ..stripped the hostility. We’re putti…
    ##  5 [2015-05-01 13:56:03] <WikiLeaks> suppressed.                           
    ##  6 [2015-05-01 14:01:26] <noll> yes, both Wired & Verge contained DDB’s li…
    ##  7 [2015-05-01 14:02:37] <noll> – cyber attacks. must be one of, if not th…
    ##  8 [2015-05-01 14:03:55] <WikiLeaks> Greenberg is a partisan. Fraudulent t…
    ##  9 [2015-05-01 14:29:48] <noll> [Tweet] https://twitter.com/m_cetera/statu…
    ## 10 [2015-05-01 14:32:09] <WISE Up Action> Hi all. More comfortable discuss…
    ## # ... with 11,367 more rows
…
