…
  mutate(V1 = str_replace_all(V1, "[#@,:x]", " "),
         V1 = str_replace_all(V1, " {2,}", " "), 
         V1 = str_replace_all(V1, "^ ", "")) %>%
  # Separate the column
  separate(V1, into = c("id", "left", "top", "wide", "tall")) %>% 
  # Make sure everything is numeric
  mutate_all(as.numeric) %>%
  # Create the right and down element
  mutate(
    right = left + wide, 
    down = top + tall 
  ) 
```

    ## # A tibble: 1,375 x 1
    ##    V1                  
    ##    <fct>               
    ##  1 #1 @ 483,830: 24x18 
    ##  2 #2 @ 370,498: 21x17 
    ##  3 #3 @ 403,823: 25x21 
    ##  4 #4 @ 619,976: 20x15 
    ##  5 #5 @ 123,385: 15x26 
    ##  6 #6 @ 484,592: 11x19 
    ##  7 #7 @ 394,960: 28x14 
    ##  8 #8 @ 730,592: 26x20 
    ##  9 #9 @ 975,963: 16x26 
    ## 10 #10 @ 452,496: 18x18
    ## # ... with 1,365 more rows

``` r
cat("Cleaned version:\n")
```

    ## Cleaned version:

``` r
df
```

    ## # A tibble: 1,375 x 7
    ##       id  left   top  wide  tall right  down
    ##    <dbl> <dbl> <dbl> <dbl> <dbl> <dbl> <dbl>
    ##  1     1   483   830    24    18   507   848
    ##  2     2   370   498    21    17   391   515
    ##  3     3   403   823    25    21   428   844
    ##  4     4   619   976    20    15   639   991
    ##  5     5   123   385    15    26   138   411
    ##  6     6   484   592    11    19   495   611
    ##  7     7   394   960    28    14   422   974
    ##  8     8   730   592    26    20   756   612
    ##  9     9   975   963    16    26   991   989
    ## 10    10   452   496    18    18   470   514
    ## # ... with 1,365 more rows
…
  1:nrow(df), 
  function(x){
    res <- list(
     col = (df$left[x] + 1):(df$left[x]+df$wide[x]),
     row = (df$top[x] + 1):(df$top[x]+df$tall[x])
    )
    expand.grid(res$col, res$row) %>%
      mutate(claim_id = df$id[x]) %>%
      unite(col = "idx", c("Var1", "Var2"), sep = "x")
  }
) %>% as.tibble()
res
```

    ## # A tibble: 509,129 x 2
    ##    idx     claim_id
    ##    <chr>      <dbl>
    ##  1 484x831        1
    ##  2 485x831        1
    ##  3 486x831        1
    ##  4 487x831        1
    ##  5 488x831        1
    ##  6 489x831        1
    ##  7 490x831        1
    ##  8 491x831        1
    ##  9 492x831        1
    ## 10 493x831        1
    ## # ... with 509,119 more rows
…
So how to do that ?

We’ll start from our previous table and count the number of square by
claim:

``` r
n_of_claims_by_id <- res %>% 
  count(claim_id)
n_of_claims_by_id
```

    ## # A tibble: 1,375 x 2
    ##    claim_id     n
    ##       <dbl> <int>
    ##  1        1   432
    ##  2        2   357
    ##  3        3   525
    ##  4        4   300
    ##  5        5   390
    ##  6        6   209
    ##  7        7   392
    ##  8        8   520
    ##  9        9   416
    ## 10       10   324
    ## # ... with 1,365 more rows

Now we’ll count the number of time each square is claimed:

``` r
n_of_claims_by_inch <- res %>%
  count(idx)
n_of_claims_by_inch
```

    ## # A tibble: 350,158 x 2
    ##    idx          n
    ##    <chr>    <int>
    ##  1 1000x793     1
    ##  2 1000x794     1
    ##  3 1000x795     1
    ##  4 1000x796     1
    ##  5 1000x797     1
    ##  6 1000x798     1
    ##  7 1000x799     1
    ##  8 1000x800     1
    ##  9 1000x801     1
    ## 10 1000x802     1
    ## # ... with 350,148 more rows

Let’s add this info to our result object:

``` r
res <- res %>%
  left_join(n_of_claims_by_inch, by = "idx") 
res
```

    ## # A tibble: 509,129 x 3
    ##    idx     claim_id     n
    ##    <chr>      <dbl> <int>
    ##  1 484x831        1     3
    ##  2 485x831        1     3
    ##  3 486x831        1     2
    ##  4 487x831        1     2
    ##  5 488x831        1     2
    ##  6 489x831        1     2
    ##  7 490x831        1     2
    ##  8 491x831        1     2
    ##  9 492x831        1     1
    ## 10 493x831        1     1
    ## # ... with 509,119 more rows

Here, we can read that square at `484x831` has been claimed three times
(`n`), and notably by the ID `#1`. So let’s filter on the square that
has only been claimed once:

``` r
res <- res %>%
  filter(n == 1)
res
```

    ## # A tibble: 230,607 x 3
    ##    idx     claim_id     n
    ##    <chr>      <dbl> <int>
    ##  1 492x831        1     1
    ##  2 493x831        1     1
    ##  3 494x831        1     1
    ##  4 495x831        1     1
    ##  5 496x831        1     1
    ##  6 497x831        1     1
    ##  7 498x831        1     1
    ##  8 499x831        1     1
    ##  9 500x831        1     1
    ## 10 501x831        1     1
    ## # ... with 230,597 more rows
…
    ## 
    ## Attaching package: 'lubridate'

    ## The following object is masked from 'package:base':
    ## 
    ##     date

``` r
day4 <- read.delim("input4.txt", header = FALSE) %>% as.tibble()
day4
```

    ## # A tibble: 1,129 x 1
    ##    V1                                         
    ##    <fct>                                      
    ##  1 [1518-08-21 00:39] wakes up                
    ##  2 [1518-08-11 00:56] wakes up                
    ##  3 [1518-10-10 23:52] Guard #2707 begins shift
    ##  4 [1518-10-14 00:55] wakes up                
    ##  5 [1518-07-19 00:42] wakes up                
    ##  6 [1518-06-16 00:41] falls asleep            
    ##  7 [1518-03-24 00:57] wakes up                
    ##  8 [1518-05-06 00:39] wakes up                
    ##  9 [1518-08-27 00:00] Guard #3323 begins shift
    ## 10 [1518-03-22 23:50] Guard #2753 begins shift
    ## # ... with 1,119 more rows
…
  select(-record) %>%
  # Remove the line with NA in the fall asleep column
  drop_na(`falls asleep`) %>%
  # Get one minutes less, as the wakes up minute is considered to be an
  # awaken minute
  mutate(`wakes up` = `wakes up` - minutes(1),
  # Create a list column with the sequence of minutes the guard is asleep
         minutes_asleep = map2(`falls asleep`, `wakes up`, 
                               seq, by = "min"),
  # Compute how many time the guard is asleep
         sleepy_time = `wakes up` - `falls asleep`) 
time_minute
```

    ## # A tibble: 420 x 5
    ##    guard_id `falls asleep`      `wakes up`          minutes_asleep
    ##    <chr>    <dttm>              <dttm>              <list>        
    ##  1 1213     1518-02-16 00:08:00 1518-02-16 00:22:00 <dttm [15]>   
    ##  2 1213     1518-02-16 00:44:00 1518-02-16 00:50:00 <dttm [7]>    
    ##  3 1213     1518-02-16 00:56:00 1518-02-16 00:58:00 <dttm [3]>    
    ##  4 1213     1518-02-18 00:13:00 1518-02-18 00:24:00 <dttm [12]>   
    ##  5 1213     1518-03-29 00:02:00 1518-03-29 00:10:00 <dttm [9]>    
    ##  6 1213     1518-03-29 00:16:00 1518-03-29 00:47:00 <dttm [32]>   
    ##  7 1213     1518-04-27 00:03:00 1518-04-27 00:19:00 <dttm [17]>   
    ##  8 1213     1518-04-27 00:24:00 1518-04-27 00:41:00 <dttm [18]>   
    ##  9 1213     1518-04-27 00:47:00 1518-04-27 00:58:00 <dttm [12]>   
    ## 10 1213     1518-05-06 00:02:00 1518-05-06 00:38:00 <dttm [37]>   
    ## # ... with 410 more rows, and 1 more variable: sleepy_time <time>
…
Now we know who he is, let’s see at which minute of the hour he’s the
most asleep:

``` r
time_minute %>%
  filter(guard_id == which_guard$guard_id) %>%
  unnest(minutes_asleep) %>%
  print() %>%
  # Extract the minute part
  mutate(minutes_asleep = minute(minutes_asleep)) %>%
  count(minutes_asleep, sort = TRUE)%>%
  top_n(1)
```

    ## # A tibble: 502 x 5
    ##    guard_id `falls asleep`      `wakes up`          sleepy_time
    ##    <chr>    <dttm>              <dttm>              <time>     
    ##  1 2753     1518-02-17 00:13:00 1518-02-17 00:26:00 780 secs   
    ##  2 2753     1518-02-17 00:13:00 1518-02-17 00:26:00 780 secs   
    ##  3 2753     1518-02-17 00:13:00 1518-02-17 00:26:00 780 secs   
    ##  4 2753     1518-02-17 00:13:00 1518-02-17 00:26:00 780 secs   
    ##  5 2753     1518-02-17 00:13:00 1518-02-17 00:26:00 780 secs   
    ##  6 2753     1518-02-17 00:13:00 1518-02-17 00:26:00 780 secs   
    ##  7 2753     1518-02-17 00:13:00 1518-02-17 00:26:00 780 secs   
    ##  8 2753     1518-02-17 00:13:00 1518-02-17 00:26:00 780 secs   
    ##  9 2753     1518-02-17 00:13:00 1518-02-17 00:26:00 780 secs   
    ## 10 2753     1518-02-17 00:13:00 1518-02-17 00:26:00 780 secs   
    ## # ... with 492 more rows, and 1 more variable: minutes_asleep <dttm>
…
