…
``` r
fun_topo <- res %>%
  filter(type == "importFrom") %>%
  group_by(origin, dep) %>%
  summarise(exported_fun = n()) %>%
  ungroup()

fun_topo %>%
  arrange(desc(exported_fun))
```

    ## # A tibble: 6,759 x 3
    ##    origin           dep        exported_fun
    ##    <chr>            <chr>             <int>
    ##  1 aroma.affymetrix aroma.core          135
    ##  2 aroma.cn         aroma.core          116
    ##  3 aroma.core       R.filesets          106
    ##  4 bibliometrix     Matrix              105
    ##  5 DescTools        stats                94
    ##  6 aroma.affymetrix R.utils              90
    ##  7 aroma.core       R.utils              77
    ##  8 DiagrammeR       igraph               64
    ##  9 caret            stats                51
    ## 10 aroma.affymetrix R.filesets           50
    ## # ... with 6,749 more rows
…
``` r
just_one <- fun_topo %>%
  filter(exported_fun == 1) %>%
  left_join(res)
```

    ## Joining, by = c("origin", "dep")

``` r
just_one %>% 
  count(dep, fun, sort = TRUE)
```

    ## # A tibble: 1,206 x 3
    ##    dep       fun           n
    ##    <chr>     <chr>     <int>
    ##  1 Rcpp      evalCpp     129
    ##  2 magrittr  %>%          75
    ##  3 methods   is           66
    ##  4 Rcpp      sourceCpp    54
    ##  5 graphics  plot         50
    ##  6 utils     combn        38
    ##  7 methods   new          34
    ##  8 utils     tail         30
    ##  9 MASS      mvrnorm      29
    ## 10 grDevices rgb          28
    ## # ... with 1,196 more rows
