…
Given that I want to add manual exercises (the one I know how to do, and
like to do), I’ll do this manually in a CSV file.

``` r
worrkout::wk
```

    # A tibble: 27 x 7
       type    description      val unit    complexity inside pics                  
       <chr>   <chr>          <dbl> <chr>        <dbl> <lgl>  <chr>                 
     1 Jumpin… "Jumping Rope"   100 jump             1 FALSE  https://mir-s3-cdn-cf…
     2 Bodywe… "Plank"           45 seconds          1 TRUE   https://thumbs.gfycat…
     3 Bodywe… "Squat"           16 x                1 TRUE   https://thumbs.gfycat…
     4 Bodywe… "Lunge"           16 x / ea…          1 TRUE   https://media0.giphy.…
     5 Bodywe… "Single-Leg B…    16 x / ea…          1 TRUE   https://thumbs.gfycat…
     6 Bodywe… "Glute Bridge"    16 x / ea…          1 TRUE   https://thumbs.gfycat…
     7 Bodywe… "Plyo Lunge"      16 x / ea…          1 TRUE   https://media.giphy.c…
     8 Bodywe… "Mountain Cli…    16 x / ea…          1 TRUE   https://media1.tenor.…
     9 Kettle… "Russian Twis…    16 x                1 TRUE   https://thumbs.gfycat…
    10 Bodywe… "Leg Lift"        16 x                1 TRUE   https://thumbs.gfycat…
    # … with 17 more rows
…
