…
      n_contain == "no other" ~ "0", 
      TRUE  ~  n_contain
    ) %>% as.character(),
    contain = gsub(" bags*", "", contain),
    contain = gsub("[0-9]*", "", contain),
    contain = stringr::str_trim(contain)
  ) %>%
  # Keeping only the needed elements
  select(
    origin, contain, n_contain
  )
clean
```

    ## # A tibble: 1,395 x 3
    ##    origin         contain         n_contain
    ##    <chr>          <chr>           <chr>    
    ##  1 clear maroon   dull lavender   1        
    ##  2 wavy turquoise vibrant magenta 4        
    ##  3 wavy turquoise light violet    4        
    ##  4 wavy turquoise bright gold     5        
    ##  5 wavy turquoise faded black     2        
    ##  6 wavy beige     plaid magenta   3        
    ##  7 wavy beige     wavy lime       3        
    ##  8 wavy beige     clear turquoise 2        
    ##  9 wavy beige     muted cyan      3        
    ## 10 mirrored black plaid red       1        
    ## # … with 1,385 more rows
…
